[
  { "label": "Unknown", "value": 1259, "coordinates": [0, 0] },
  { "label": "Argentina", "value": 341, "coordinates": [-38.416097, -63.616672] },
  { "label": "Australia", "value": 2118, "coordinates": [-25.274398, 133.775136] },
  { "label": "Belgium", "value": 302, "coordinates": [50.503887, 4.469936] },
  { "label": "Brazil", "value": 793, "coordinates": [-14.235004, -51.92528] },
  { "label": "Brunei", "value": 271, "coordinates": [4.535277, 114.727669] },
  { "label": "Cambodia", "value": 585, "coordinates": [12.565679, 104.990963] },
  { "label": "Canada", "value": 2606, "coordinates": [56.130366, -106.346771] },
  { "label": "Chile", "value": 1549, "coordinates": [-35.675147, -71.542969] },
  { "label": "China", "value": 55961, "coordinates": [35.86166, 104.195397] },
  { "label": "France", "value": 2907, "coordinates": [46.227638, 2.213749] },
  { "label": "Germany", "value": 2931, "coordinates": [51.165691, 10.451526] },
  { "label": "Greece", "value": 78, "coordinates": [39.074208, 21.824312] },
  { "label": "Hong Kong", "value": 17823, "coordinates": [22.396428, 114.109497] },
  { "label": "India", "value": 355, "coordinates": [20.593684, 78.96288] },
  { "label": "Indonesia", "value": 19743, "coordinates": [-0.789275, 113.921327] },
  { "label": "Ireland", "value": 133, "coordinates": [53.41291, -8.24389] },
  { "label": "Italy", "value": 801, "coordinates": [41.87194, 12.56738] },
  { "label": "Japan", "value": 79449, "coordinates": [36.204824, 138.252924] },
  { "label": "Lithuania", "value": 15, "coordinates": [55.169438, 23.881275] },
  { "label": "Macao", "value": 697, "coordinates": [22.198745, 113.543873] },
  { "label": "Malaysia", "value": 10065, "coordinates": [4.210484, 101.975766] },
  { "label": "Mexico", "value": 3546, "coordinates": [23.634501, -102.552784] },
  { "label": "Myanmar (Burma)", "value": 1982, "coordinates": [21.913965, 95.956223] },
  { "label": "Netherlands", "value": 2114, "coordinates": [52.132633, 5.291266] },
  { "label": "New Zealand", "value": 373, "coordinates": [-40.900557, 174.885971] },
  { "label": "Norway", "value": 134, "coordinates": [60.472024, 8.468946] },
  { "label": "Philippines", "value": 17579, "coordinates": [12.879721, 121.774017] },
  { "label": "Poland", "value": 731, "coordinates": [51.919438, 19.145136] },
  { "label": "Romania", "value": 140, "coordinates": [45.943161, 24.96676] },
  { "label": "Russia", "value": 1524, "coordinates": [61.52401, 105.318756] },
  { "label": "Saudi Arabia", "value": 758, "coordinates": [23.885942, 45.079162] },
  { "label": "Singapore", "value": 8527, "coordinates": [1.352083, 103.819836] },
  { "label": "South Africa", "value": 182, "coordinates": [-30.559482, 22.937506] },
  { "label": "South Korea", "value": 254821, "coordinates": [35.907757, 127.766922] },
  { "label": "Spain", "value": 1037, "coordinates": [40.463667, -3.74922] },
  { "label": "Sweden", "value": 165, "coordinates": [60.128161, 18.643501] },
  { "label": "Switzerland", "value": 231, "coordinates": [46.818188, 8.227512] },
  { "label": "Taiwan", "value": 33196, "coordinates": [23.69781, 120.960515] },
  { "label": "Thailand", "value": 24616, "coordinates": [15.870032, 100.992541] },
  { "label": "Turkey", "value": 225, "coordinates": [38.963745, 35.243322] },
  { "label": "Turkmenistan", "value": 32, "coordinates": [38.969719, 59.556278] },
  { "label": "United Arab Emirates", "value": 756, "coordinates": [23.424076, 53.847818] },
  { "label": "United Kingdom", "value": 3028, "coordinates": [55.378051, -3.435973] },
  { "label": "United States", "value": 27514, "coordinates": [37.09024, -95.712891] },
  { "label": "Vietnam", "value": 13624, "coordinates": [14.058324, 108.277199] },
  { "label": "Uganda", "value": 14, "coordinates": [1.373333, 32.290275] },
  { "label": "Finland", "value": 122, "coordinates": [61.92411, 25.748151] },
  { "label": "Guam", "value": 39, "coordinates": [13.444304, 144.793731] },
  { "label": "Latvia", "value": 20, "coordinates": [56.879635, 24.603189] },
  { "label": "Peru", "value": 752, "coordinates": [-9.189967, -75.015152] },
  { "label": "Ukraine", "value": 257, "coordinates": [48.379433, 31.16558] },
  { "label": "Iceland", "value": 20, "coordinates": [64.963051, -19.020835] },
  { "label": "Israel", "value": 144, "coordinates": [31.046051, 34.851612] },
  { "label": "Réunion", "value": 21, "coordinates": [-21.139029, 55.519356] },
  { "label": "Albania", "value": 3, "coordinates": [41.153332, 20.168331] },
  { "label": "Aruba", "value": 6, "coordinates": [12.52111, -69.968338] },
  { "label": "Austria", "value": 199, "coordinates": [47.516231, 14.550072] },
  { "label": "Belarus", "value": 43, "coordinates": [53.709807, 27.953389] },
  { "label": "Colombia", "value": 276, "coordinates": [4.570868, -74.297333] },
  { "label": "Czechia", "value": 107, "coordinates": [49.817492, 15.472962] },
  { "label": "Denmark", "value": 187, "coordinates": [56.26392, 9.501785] },
  { "label": "Greenland", "value": 2, "coordinates": [71.706936, -42.604303] },
  { "label": "Hungary", "value": 146, "coordinates": [47.162494, 19.503304] },
  { "label": "Nigeria", "value": 13, "coordinates": [9.081999, 8.675277] },
  { "label": "Oman", "value": 74, "coordinates": [21.512583, 55.923255] },
  { "label": "Portugal", "value": 185, "coordinates": [39.399872, -8.224454] },
  { "label": "Sri Lanka", "value": 20, "coordinates": [7.873054, 80.771797] },
  { "label": "Bahrain", "value": 21, "coordinates": [25.930414, 50.637772] },
  { "label": "Bangladesh", "value": 24, "coordinates": [23.684994, 90.356331] },
  { "label": "Costa Rica", "value": 139, "coordinates": [9.748917, -83.753428] },
  { "label": "Dominican Republic", "value": 28, "coordinates": [18.735693, -70.162651] },
  { "label": "Estonia", "value": 21, "coordinates": [58.595272, 25.013607] },
  { "label": "Mauritius", "value": 5, "coordinates": [-20.348404, 57.552152] },
  { "label": "Paraguay", "value": 54, "coordinates": [-23.442503, -58.443832] },
  { "label": "Puerto Rico", "value": 110, "coordinates": [18.220833, -66.590149] },
  { "label": "Qatar", "value": 64, "coordinates": [25.354826, 51.183884] },
  { "label": "Slovakia", "value": 43, "coordinates": [48.669026, 19.699024] },
  { "label": "Uruguay", "value": 53, "coordinates": [-32.522779, -55.765835] },
  { "label": "Croatia", "value": 25, "coordinates": [45.1, 15.2] },
  { "label": "Honduras", "value": 10, "coordinates": [15.199999, -86.241905] },
  { "label": "Iraq", "value": 29, "coordinates": [33.223191, 43.679291] },
  { "label": "Kuwait", "value": 105, "coordinates": [29.31166, 47.481766] },
  { "label": "Morocco", "value": 11, "coordinates": [31.791702, -7.09262] },
  { "label": "Namibia", "value": 1, "coordinates": [-22.95764, 18.49041] },
  { "label": "Serbia", "value": 28, "coordinates": [44.016521, 21.005859] },
  { "label": "Bolivia", "value": 129, "coordinates": [-16.290154, -63.588653] },
  { "label": "Luxembourg", "value": 32, "coordinates": [49.815273, 6.129583] },
  { "label": "Panama", "value": 31, "coordinates": [8.537981, -80.782127] },
  { "label": "Yemen", "value": 1, "coordinates": [15.552727, 48.516388] },
  { "label": "Bulgaria", "value": 34, "coordinates": [42.733883, 25.48583] },
  { "label": "Cyprus", "value": 21, "coordinates": [35.126413, 33.429859] },
  { "label": "Guatemala", "value": 24, "coordinates": [15.783471, -90.230759] },
  { "label": "Mongolia", "value": 27, "coordinates": [46.862496, 103.846656] },
  { "label": "Pakistan", "value": 20, "coordinates": [30.375321, 69.345116] },
  { "label": "Kenya", "value": 3, "coordinates": [-0.023559, 37.906193] },
  { "label": "Armenia", "value": 2, "coordinates": [40.069099, 45.038189] },
  { "label": "Azerbaijan", "value": 17, "coordinates": [40.143105, 47.576927] },
  { "label": "Ecuador", "value": 100, "coordinates": [-1.831239, -78.183406] },
  { "label": "Egypt", "value": 14, "coordinates": [26.820553, 30.802498] },
  { "label": "El Salvador", "value": 76, "coordinates": [13.794185, -88.89653] },
  { "label": "Iran", "value": 40, "coordinates": [32.427908, 53.688046] },
  { "label": "Uzbekistan", "value": 21, "coordinates": [41.377491, 64.585262] },
  { "label": "Malta", "value": 5, "coordinates": [35.937496, 14.375416] },
  { "label": "Moldova", "value": 8, "coordinates": [47.411631, 28.369885] },
  { "label": "Laos", "value": 87, "coordinates": [19.85627, 102.495496] },
  { "label": "Kazakhstan", "value": 41, "coordinates": [48.019573, 66.923684] },
  { "label": "Bosnia & Herzegovina", "value": 10, "coordinates": [43.915886, 17.679076] },
  { "label": "Algeria", "value": 5, "coordinates": [28.033886, 1.659626] },
  { "label": "Jordan", "value": 7, "coordinates": [30.585164, 36.238414] },
  { "label": "Tunisia", "value": 2, "coordinates": [33.886917, 9.537499] },
  { "label": "Maldives", "value": 4, "coordinates": [3.202778, 73.22068] },
  { "label": "Fiji", "value": 6, "coordinates": [-16.578193, 179.414413] },
  { "label": "Venezuela", "value": 5, "coordinates": [6.42375, -66.58973] },
  { "label": "Palestine", "value": 4, "coordinates": [31.952162, 35.233154] },
  { "label": "Lebanon", "value": 21, "coordinates": [33.854721, 35.862285] },
  { "label": "Slovenia", "value": 22, "coordinates": [46.151241, 14.995463] },
  { "label": "British Virgin Islands", "value": 2, "coordinates": [18.420695, -64.639968] },
  { "label": "Georgia", "value": 1, "coordinates": [42.315407, 43.356892] },
  { "label": "Nicaragua", "value": 1, "coordinates": [12.865416, -85.207229] },
  { "label": "Sudan", "value": 1, "coordinates": [12.862807, 30.217636] },
  { "label": "Martinique", "value": 1, "coordinates": [14.641528, -61.024174] },
  { "label": "Faroe Islands", "value": 6, "coordinates": [61.892635, -6.911806] },
  { "label": "New Caledonia", "value": 1, "coordinates": [-20.904305, 165.618042] },
  { "label": "Northern Mariana Islands", "value": 2, "coordinates": [17.33083, 145.38469] }
]
